518713 627886 509
333431 903106 525
430018 865384 525
461601 587399 470
366644 623736 470
516327 905666 525
999751 364727 525
176840 510061 449
600274 389385 470
330463 861065 525
169939 447419 449
445133 152497 449
217491 255383 443
343321 955381 525
40085 492154 449
807803 944350 525
979782 959455 458
403121 585640 470
595037 888052 525
30847 209451 383
519095 244374 470
332009 9952 443
304195 62239 443
963288 939343 507
609888 839030 525
886765 622124 525
191024 523166 470
169152 345320 443
497098 449872 444
18785 390084 443
473726 351543 449
298286 998322 525
588162 299126 470
559971 921918 525
937129 668480 525
520243 30302 470
584915 210104 470
758450 949484 525
421595 904418 525
640790 648396 416
410995 215264 449
519767 842265 525
275327 249960 407
638429 953265 525
973207 43503 525
773564 302798 509
404511 653777 509
424469 16027 449
844154 20997 525
692224 223373 509
928668 858561 476
412628 895604 525
366994 910980 525
603621 446843 470
745235 286356 509
411626 839896 525
14771 797793 509
128827 464343 449
48223 20951 324
559935 641501 509
488976 442474 444
778572 272655 509
640425 17875 509
518321 162454 470
715789 383447 509
457326 812844 509
878014 198259 525
151517 992410 525
702782 358146 509
460090 842763 525
788061 274309 509
166442 61836 383
609631 58871 470
153796 769288 509
145014 992432 525
63195 933466 525
336846 629557 509
115314 779964 509
225541 569339 470
28651 98812 351
329304 649192 509
921351 715315 525
614916 365395 470
458932 483822 444
125089 665557 509
616123 61992 470
367229 68135 443
474939 826244 509
638071 705400 504
545625 181075 470
907455 639167 525
979860 451903 525
952437 286428 525
404047 85454 443
780483 746835 468
924790 643333 525
620602 379040 470
429576 317864 449
121744 451073 449
398958 979203 525
456960 535059 470
458848 191594 449
392941 416193 449
655040 39832 509
365281 945670 525
974854 306303 525
841900 690894 525
22054 923188 525
936032 842941 476
747311 216980 509
925115 401610 525
749706 965368 525
658173 453101 509
430076 437439 387
842689 280358 525
414562 753831 509
14017 539675 470
810873 780704 468
419356 813977 509
716814 581678 509
473644 990246 525
32644 13670 308
15317 166501 383
252607 294808 407
891836 910049 445
608569 172056 470
598743 598859 297
4281 53619 340
37731 784715 509
967206 825127 525
203842 239752 443
907049 676273 525
454093 987198 525
212468 735476 509
704598 445753 509
820242 494879 509
887135 268151 525
436062 225013 449
285653 866792 525
770567 576672 509
333413 964499 525
873863 680379 525
509912 688737 509
20185 1254 279
807100 200134 509
444891 559675 470
795325 477733 509
962693 250625 525
556972 696290 509
555222 130376 470
686232 556037 509
412870 705153 509
231915 505071 449
629017 889548 525
873780 580277 525
353324 515184 470
834416 103549 509
983123 31581 525
764175 158456 509
443010 190649 449
68105 2746 340
670381 36845 509
756710 758857 362
718170 67317 509
231997 666805 509
556060 480757 470
757712 807110 468
168398 967426 525
733586 578389 509
518820 257315 470
639452 806173 504
595782 878413 525
73674 829897 509
213738 548548 470
32158 314271 443
104449 797777 509
761214 679382 504
634278 604710 509
969682 178853 525
415714 902847 525
73803 942197 525
975078 337205 525
668648 830571 504
953407 866167 507
465954 712218 509
977038 81122 525
514628 394845 470
756814 793032 468
222982 148178 386
61495 498950 449
180562 943135 525
905422 612641 525
765723 603229 509
101072 724509 509
702424 608369 509
100149 635090 509
665278 777659 504
68473 644417 509
673809 326814 509
4192 366156 443
639302 837877 525
534824 163919 470
971916 205332 525
640960 656668 416
570063 691655 509
202642 714068 509
563141 709528 509
393013 902335 525
462135 956292 525
902375 910798 476
379396 231418 441
239207 421127 449
518662 100646 470
591504 672430 509
388284 304585 441
721818 910913 525
522281 573916 452
650348 589755 509
205781 864292 525
638458 233810 509
926373 172374 525
942553 284617 525
179887 611591 470
824646 366312 509
778973 400539 509
506350 73973 449
738050 867889 525
959992 845814 507
895681 429659 525
147813 352932 443
598893 339770 470
323160 920711 525
144978 409418 443
758314 928248 525
652475 67887 509
787582 568326 509
650936 720810 504
231388 524248 470
142381 299494 443
108413 429375 449
517661 513913 395
674107 96371 509
841258 943813 507
415822 923381 525
757920 384099 509
107195 89553 354
112960 995543 525
367789 633715 509
919879 242038 525
607123 580309 434
