16808 475250 449
650074 943659 525
108931 211273 383
27545 850879 525
777924 237710 509
564441 438166 470
484493 243043 449
807988 522504 509
282328 531730 470
378841 542613 470
544304 833170 509
817710 97158 509
129561 570934 470
493100 280279 449
351817 795336 509
899098 807827 525
613513 929268 525
723811 877634 525
580980 379150 470
236580 558822 470
511968 10673 470
901394 819337 525
125486 91746 354
425229 894092 525
640195 186358 509
35002 921154 525
616709 357945 470
515669 571491 452
788125 702197 504
509531 60904 449
727723 454667 509
728550 118025 509
797802 806854 406
540978 847409 525
308229 374934 441
260299 938982 525
28636 408014 443
623866 389815 470
739064 554537 509
339426 1670 443
724116 220095 509
75630 446502 449
546518 934196 525
30106 810405 509
319452 194299 443
782189 821124 468
799506 246883 509
406753 731567 509
936717 130338 525
354439 53145 443
851502 844898 419
783872 955829 525
111138 619359 470
153178 982398 525
722295 477905 509
621610 946232 525
959746 844176 507
853636 266299 525
98143 880400 525
827969 90413 509
400261 673558 509
441595 688009 509
716396 325969 509
119114 204531 383
471007 910963 525
797943 285366 509
842083 179853 525
530768 633822 509
185696 824713 509
973672 859902 507
248591 724832 509
314739 153058 443
631617 819791 504
555641 110680 470
437336 77007 449
497973 936099 525
649096 975320 525
583455 345224 470
112290 556761 470
948906 586127 525
236124 129507 443
45814 476771 449
935239 329095 525
896221 987845 507
712367 140535 509
725227 915395 525
941364 318739 525
607845 559591 434
436551 145160 449
808624 764948 468
597386 307218 470
195273 755540 509
399248 242386 441
413497 894886 525
140624 682421 509
28145 531969 470
335736 699916 509
161626 663535 509
46043 796012 509
454680 24153 449
575245 977296 525
878819 590397 525
87693 301816 443
112992 740034 509
122670 119398 336
489554 410548 444
975826 121211 525
729663 830212 468
533809 273378 470
822762 626 509
737336 401869 509
977996 2777 525
62768 997440 525
829875 689332 504
540557 456302 470
468873 300561 449
120095 918985 525
113756 639790 509
851408 828016 525
30194 222770 386
15681 303456 443
16856 267507 443
170964 233503 443
586677 863109 525
963250 602332 525
277845 887639 525
760809 939998 525
428652 54850 449
645204 495732 509
796532 198015 509
395420 636776 509
42010 530181 470
687930 995224 525
244055 588261 470
76738 991546 525
747318 837526 468
204201 134257 383
421565 960598 525
306649 337705 384
225551 925151 525
541977 301413 470
938555 482798 525
102505 348382 443
34749 7066 311
659379 847700 525
878210 725130 525
578554 265484 470
650448 264608 509
180774 45323 383
664306 755177 504
170054 927225 525
784631 280367 509
205401 660445 509
495371 570286 470
883017 193899 525
608156 841134 525
515558 696577 509
953179 658267 525
187358 221712 386
227879 320615 443
474820 795738 509
983134 620592 525
623721 48763 470
306634 976198 525
576032 238589 470
860590 54874 525
998878 637305 525
979359 861201 507
777255 68961 509
14916 293948 443
645481 207731 509
669956 674547 367
837108 841239 525
340001 984927 525
545036 774858 509
561114 250115 470
929594 601361 525
498355 968419 525
25358 342586 443
313730 721016 509
776564 106103 509
860918 786644 525
819420 62968 509
547748 245270 470
855396 423304 525
404474 719104 509
711749 424386 509
205659 163460 365
45407 673931 509
739825 285133 509
300974 959604 525
246898 907921 525
603951 135232 470
488481 620204 470
213901 824521 509
462534 481259 413
217004 618677 470
820951 423935 509
558781 279880 470
941833 482575 525
433550 174543 449
306250 252772 407
766311 915880 525
200984 669971 509
392041 82724 443
73651 902972 525
753230 190319 509
917747 710300 525
687231 185622 509
270777 850125 525
668245 76959 509
747697 666772 504
829065 791561 468
56599 318752 443
869941 764504 525
789552 192802 509
427206 315081 449
780419 559275 509
659650 40414 509
783321 519026 509
322013 901784 525
854789 624118 525
424009 81551 449
265325 319196 407
451258 824512 509
835691 438667 509
262411 760594 509
490554 809566 509
190961 228743 386
151404 254353 443
7308 256142 443
244911 413201 449
192800 343128 443
120172 157788 383
334415 31626 443
116642 619518 470
55349 901843 525
114316 515975 470
181446 211374 373
972221 739912 525
509240 245055 449
641306 556930 509
382254 354190 423
815167 204357 509
359305 659861 509
645899 5593 509
901721 866117 445
151581 98868 375
149353 26940 375
178699 494902 449
160812 716617 509
756892 848672 525
331729 326672 353
951662 77046 525
303121 620241 470
317159 299454 384
769628 685351 504
853712 535564 525
629595 207534 509
401728 307828 441
398796 919532 525
737443 351517 509
885007 478516 525
466925 642602 509
627098 168662 509
967104 34325 525
980109 44937 525
2282 517016 470
43711 963217 525
301906 775974 509
767782 882721 525
270792 481170 449
297866 715828 509
329537 616729 470
357126 320385 441
580168 789950 509
500477 416047 444
521577 568667 452
577468 260521 470
627385 341992 509
425211 333259 449
428212 268745 449
419519 685719 509
321935 666826 509
280768 658690 509
449819 73015 449
211826 102919 383
958029 333030 525
78035 6728 351
151241 933755 525
486541 408397 449
90936 203084 383
48049 846866 525
87012 615253 470
553065 377877 470
17238 232676 443
70246 482711 449
470416 728193 509
24711 454748 449
463038 701300 509
